module goParser

go 1.19

require (
	github.com/PuerkitoBio/goquery v1.8.1
	github.com/go-chi/chi/v5 v5.0.8
	github.com/jmoiron/sqlx v1.3.5
	github.com/tebeka/selenium v0.9.9
	go.mongodb.org/mongo-driver v1.12.0
)

require (
	github.com/andybalholm/cascadia v1.3.1 // indirect
	github.com/blang/semver v3.5.1+incompatible // indirect
	github.com/golang/snappy v0.0.1 // indirect
	github.com/google/go-cmp v0.5.9 // indirect
	github.com/klauspost/compress v1.13.6 // indirect
	github.com/montanaflynn/stats v0.0.0-20171201202039-1bf9dbcd8cbe // indirect
	github.com/pkg/errors v0.9.1 // indirect
	github.com/stretchr/testify v1.8.0 // indirect
	github.com/xdg-go/pbkdf2 v1.0.0 // indirect
	github.com/xdg-go/scram v1.1.2 // indirect
	github.com/xdg-go/stringprep v1.0.4 // indirect
	github.com/youmark/pkcs8 v0.0.0-20181117223130-1be2e3e5546d // indirect
	golang.org/x/crypto v0.0.0-20220622213112-05595931fe9d // indirect
	golang.org/x/net v0.8.0 // indirect
	golang.org/x/sync v0.1.0 // indirect
	golang.org/x/text v0.8.0 // indirect
)
